Fp1	E1	-2.695405558	8.884820317	1.088308144
Fp2	E2	2.695405558	8.884820317	1.088308144
F3	E3	-4.459387187	6.021159964	4.365321482
F4	E4	4.459387187	6.021159964	4.365321482
C3	E5	-5.47913021	0.284948655	6.38332782
C4	E6	5.47913021	0.284948655	6.38332782
P3	E7	-5.831241498	-4.494821698	4.955347697
P4	E8	5.831241498	-4.494821698	4.955347697
O1	E9	-2.738838019	-8.607966849	0.239368223
O2	E10	2.738838019	-8.607966849	0.239368223
F7	E11	-6.399087198	4.127248875	-0.356852241
F8	E12	6.399087198	4.127248875	-0.356852241
T3	E13	-7.304625099	-1.866238006	-0.629182006
T4	E14	7.304625099	-1.866238006	-0.629182006
T5	E15	-6.034746843	-5.755782196	0.051843011
T6	E16	6.034746843	-5.755782196	0.051843011
Fz	E17	0	7.96264703	5.044718001
Cz	E18	0	0	8.899186843
Pz	E19	0	-6.676694032	6.465208258
Oz	E20	0	-8.996686498	0.487952047
F9	E21	-6.518995129	2.417299399	-5.253637073
F10	E22	6.518995129	2.417299399	-5.253637073
LM	E23	-6.174969392	-2.458138877	-5.637380998
RM	E24	6.174969392	-2.458138877	-5.637380998
O9	E25	-3.784983913	-6.401014415	-5.260040689
O10	E26	3.784983913	-6.401014415	-5.260040689
Fpz	E27	0	9.087440894	1.333345013
FCz	E28	0	3.806770224	7.891304964
VEOG1	LE	-3.743504949	6.649204911	-6.530243068
VEOG2	RE	3.743504949	6.649204911	-6.530243068
HEOG1	E31	-6.118458137	4.523870113	-4.409174427
HEOG2	E32	6.118458137	4.523870113	-4.409174427
